com\aris\sfgpetclinic\controllers\IndexController.class
com\aris\sfgpetclinic\controllers\VisitController.class
com\aris\sfgpetclinic\SfgPetClinicApplication.class
com\aris\sfgpetclinic\controllers\VetController.class
com\aris\sfgpetclinic\bootstrap\DataLoader.class
com\aris\sfgpetclinic\controllers\PetController.class
com\aris\sfgpetclinic\formatters\PetTypeFormatter.class
com\aris\sfgpetclinic\controllers\OwnerController.class
