-------------------------------------------------------------------------------
Test set: com.aris.sfgpetclinic.services.map.PetServiceMapTest
-------------------------------------------------------------------------------
Tests run: 5, Failures: 0, Errors: 0, Skipped: 0, Time elapsed: 0.002 s - in com.aris.sfgpetclinic.services.map.PetServiceMapTest
