com\aris\sfgpetclinic\model\Person.class
com\aris\sfgpetclinic\model\Pet.class
com\aris\sfgpetclinic\services\map\PetTypeServiceMap.class
com\aris\sfgpetclinic\model\repositories\VisitRepository.class
com\aris\sfgpetclinic\model\Owner.class
com\aris\sfgpetclinic\services\springdatajpa\PetSDJpaService.class
com\aris\sfgpetclinic\model\Speciality.class
com\aris\sfgpetclinic\services\SpecialityService.class
com\aris\sfgpetclinic\model\repositories\PetTypeRepository.class
com\aris\sfgpetclinic\services\VisitService.class
com\aris\sfgpetclinic\services\PetTypeService.class
com\aris\sfgpetclinic\services\springdatajpa\OwnerSDJpaService.class
com\aris\sfgpetclinic\services\springdatajpa\VisitSDJpaService.class
com\aris\sfgpetclinic\services\springdatajpa\VetSDJpaService.class
com\aris\sfgpetclinic\services\VetService.class
com\aris\sfgpetclinic\model\repositories\VetRepository.class
com\aris\sfgpetclinic\services\map\SpecialityServiceMap.class
com\aris\sfgpetclinic\model\repositories\PetRepository.class
com\aris\sfgpetclinic\model\Owner$OwnerBuilder.class
com\aris\sfgpetclinic\services\map\VisitServiceMap.class
com\aris\sfgpetclinic\services\springdatajpa\SpecialitySDJpaService.class
com\aris\sfgpetclinic\model\Pet$PetBuilder.class
com\aris\sfgpetclinic\model\repositories\OwnerRepository.class
com\aris\sfgpetclinic\model\Vet$VetBuilder.class
com\aris\sfgpetclinic\services\OwnerService.class
com\aris\sfgpetclinic\model\PetType$PetTypeBuilder.class
com\aris\sfgpetclinic\model\Visit$VisitBuilder.class
com\aris\sfgpetclinic\services\CrudService.class
com\aris\sfgpetclinic\services\map\AbstractMapService.class
com\aris\sfgpetclinic\services\map\VetServiceMap.class
com\aris\sfgpetclinic\model\Speciality$SpecialityBuilder.class
com\aris\sfgpetclinic\model\Vet.class
com\aris\sfgpetclinic\model\PetType.class
com\aris\sfgpetclinic\services\map\OwnerServiceMap.class
com\aris\sfgpetclinic\services\PetService.class
com\aris\sfgpetclinic\services\springdatajpa\PetTypeSDJpaService.class
com\aris\sfgpetclinic\model\Visit.class
com\aris\sfgpetclinic\model\BaseEntity.class
com\aris\sfgpetclinic\model\repositories\SpecialityRepository.class
com\aris\sfgpetclinic\services\map\PetServiceMap.class
