C:\Users\AI21Z\Desktop\SPRING GURU\SFG-PetClinic_MigToGitHub\sfg-pet-clinic\pet-clinic-data\src\main\java\com\aris\sfgpetclinic\services\map\VisitServiceMap.java
C:\Users\AI21Z\Desktop\SPRING GURU\SFG-PetClinic_MigToGitHub\sfg-pet-clinic\pet-clinic-data\src\main\java\com\aris\sfgpetclinic\model\Owner.java
C:\Users\AI21Z\Desktop\SPRING GURU\SFG-PetClinic_MigToGitHub\sfg-pet-clinic\pet-clinic-data\src\main\java\com\aris\sfgpetclinic\model\repositories\PetRepository.java
C:\Users\AI21Z\Desktop\SPRING GURU\SFG-PetClinic_MigToGitHub\sfg-pet-clinic\pet-clinic-data\src\main\java\com\aris\sfgpetclinic\model\PetType.java
C:\Users\AI21Z\Desktop\SPRING GURU\SFG-PetClinic_MigToGitHub\sfg-pet-clinic\pet-clinic-data\src\main\java\com\aris\sfgpetclinic\services\VisitService.java
C:\Users\AI21Z\Desktop\SPRING GURU\SFG-PetClinic_MigToGitHub\sfg-pet-clinic\pet-clinic-data\src\main\java\com\aris\sfgpetclinic\services\map\SpecialityServiceMap.java
C:\Users\AI21Z\Desktop\SPRING GURU\SFG-PetClinic_MigToGitHub\sfg-pet-clinic\pet-clinic-data\src\main\java\com\aris\sfgpetclinic\services\springdatajpa\PetTypeSDJpaService.java
C:\Users\AI21Z\Desktop\SPRING GURU\SFG-PetClinic_MigToGitHub\sfg-pet-clinic\pet-clinic-data\src\main\java\com\aris\sfgpetclinic\services\springdatajpa\PetSDJpaService.java
C:\Users\AI21Z\Desktop\SPRING GURU\SFG-PetClinic_MigToGitHub\sfg-pet-clinic\pet-clinic-data\src\main\java\com\aris\sfgpetclinic\services\VetService.java
C:\Users\AI21Z\Desktop\SPRING GURU\SFG-PetClinic_MigToGitHub\sfg-pet-clinic\pet-clinic-data\src\main\java\com\aris\sfgpetclinic\model\Visit.java
C:\Users\AI21Z\Desktop\SPRING GURU\SFG-PetClinic_MigToGitHub\sfg-pet-clinic\pet-clinic-data\src\main\java\com\aris\sfgpetclinic\model\Person.java
C:\Users\AI21Z\Desktop\SPRING GURU\SFG-PetClinic_MigToGitHub\sfg-pet-clinic\pet-clinic-data\src\main\java\com\aris\sfgpetclinic\services\springdatajpa\VisitSDJpaService.java
C:\Users\AI21Z\Desktop\SPRING GURU\SFG-PetClinic_MigToGitHub\sfg-pet-clinic\pet-clinic-data\src\main\java\com\aris\sfgpetclinic\model\Pet.java
C:\Users\AI21Z\Desktop\SPRING GURU\SFG-PetClinic_MigToGitHub\sfg-pet-clinic\pet-clinic-data\src\main\java\com\aris\sfgpetclinic\services\map\OwnerServiceMap.java
C:\Users\AI21Z\Desktop\SPRING GURU\SFG-PetClinic_MigToGitHub\sfg-pet-clinic\pet-clinic-data\src\main\java\com\aris\sfgpetclinic\model\repositories\PetTypeRepository.java
C:\Users\AI21Z\Desktop\SPRING GURU\SFG-PetClinic_MigToGitHub\sfg-pet-clinic\pet-clinic-data\src\main\java\com\aris\sfgpetclinic\services\springdatajpa\SpecialitySDJpaService.java
C:\Users\AI21Z\Desktop\SPRING GURU\SFG-PetClinic_MigToGitHub\sfg-pet-clinic\pet-clinic-data\src\main\java\com\aris\sfgpetclinic\services\map\AbstractMapService.java
C:\Users\AI21Z\Desktop\SPRING GURU\SFG-PetClinic_MigToGitHub\sfg-pet-clinic\pet-clinic-data\src\main\java\com\aris\sfgpetclinic\model\Speciality.java
C:\Users\AI21Z\Desktop\SPRING GURU\SFG-PetClinic_MigToGitHub\sfg-pet-clinic\pet-clinic-data\src\main\java\com\aris\sfgpetclinic\services\map\PetTypeServiceMap.java
C:\Users\AI21Z\Desktop\SPRING GURU\SFG-PetClinic_MigToGitHub\sfg-pet-clinic\pet-clinic-data\src\main\java\com\aris\sfgpetclinic\model\repositories\VisitRepository.java
C:\Users\AI21Z\Desktop\SPRING GURU\SFG-PetClinic_MigToGitHub\sfg-pet-clinic\pet-clinic-data\src\main\java\com\aris\sfgpetclinic\services\PetTypeService.java
C:\Users\AI21Z\Desktop\SPRING GURU\SFG-PetClinic_MigToGitHub\sfg-pet-clinic\pet-clinic-data\src\main\java\com\aris\sfgpetclinic\services\springdatajpa\OwnerSDJpaService.java
C:\Users\AI21Z\Desktop\SPRING GURU\SFG-PetClinic_MigToGitHub\sfg-pet-clinic\pet-clinic-data\src\main\java\com\aris\sfgpetclinic\services\PetService.java
C:\Users\AI21Z\Desktop\SPRING GURU\SFG-PetClinic_MigToGitHub\sfg-pet-clinic\pet-clinic-data\src\main\java\com\aris\sfgpetclinic\services\springdatajpa\VetSDJpaService.java
C:\Users\AI21Z\Desktop\SPRING GURU\SFG-PetClinic_MigToGitHub\sfg-pet-clinic\pet-clinic-data\src\main\java\com\aris\sfgpetclinic\model\Vet.java
C:\Users\AI21Z\Desktop\SPRING GURU\SFG-PetClinic_MigToGitHub\sfg-pet-clinic\pet-clinic-data\src\main\java\com\aris\sfgpetclinic\services\map\VetServiceMap.java
C:\Users\AI21Z\Desktop\SPRING GURU\SFG-PetClinic_MigToGitHub\sfg-pet-clinic\pet-clinic-data\src\main\java\com\aris\sfgpetclinic\services\map\PetServiceMap.java
C:\Users\AI21Z\Desktop\SPRING GURU\SFG-PetClinic_MigToGitHub\sfg-pet-clinic\pet-clinic-data\src\main\java\com\aris\sfgpetclinic\model\repositories\SpecialityRepository.java
C:\Users\AI21Z\Desktop\SPRING GURU\SFG-PetClinic_MigToGitHub\sfg-pet-clinic\pet-clinic-data\src\main\java\com\aris\sfgpetclinic\services\CrudService.java
C:\Users\AI21Z\Desktop\SPRING GURU\SFG-PetClinic_MigToGitHub\sfg-pet-clinic\pet-clinic-data\src\main\java\com\aris\sfgpetclinic\model\BaseEntity.java
C:\Users\AI21Z\Desktop\SPRING GURU\SFG-PetClinic_MigToGitHub\sfg-pet-clinic\pet-clinic-data\src\main\java\com\aris\sfgpetclinic\services\OwnerService.java
C:\Users\AI21Z\Desktop\SPRING GURU\SFG-PetClinic_MigToGitHub\sfg-pet-clinic\pet-clinic-data\src\main\java\com\aris\sfgpetclinic\model\repositories\OwnerRepository.java
C:\Users\AI21Z\Desktop\SPRING GURU\SFG-PetClinic_MigToGitHub\sfg-pet-clinic\pet-clinic-data\src\main\java\com\aris\sfgpetclinic\model\repositories\VetRepository.java
C:\Users\AI21Z\Desktop\SPRING GURU\SFG-PetClinic_MigToGitHub\sfg-pet-clinic\pet-clinic-data\src\main\java\com\aris\sfgpetclinic\services\SpecialityService.java
